/* XPM */
static char*avanzar[]={
"21 15 2 1",
"# c #000000",
". c None",
".....................",
".....................",
"...#........#........",
"...##.......##.......",
"...###......###......",
"...####.....####.....",
"...#####....#####....",
"...######...######...",
"...#####....#####....",
"...####.....####.....",
"...###......###......",
"...##.......##.......",
"...#........#........",
".....................",
"....................."};
