/* XPM */
static char*double[]={
"22 22 6 1",
"# c #000000",
"d c #303030",
". c None",
"c c #a0a0a4",
"a c #dcdcdc",
"b c #ffffff",
"......................",
"...####...............",
"..#abba#..............",
".#abcbba#.............",
".#bcbbbb#.............",
".#bbbbbb#.............",
".#abbbba#.............",
"..#abba##.............",
"...#######............",
"........###...........",
".........###..........",
"..........###.........",
"...........##.........",
"......................",
"......................",
"........dddd...dddd...",
"...........d...d..d...",
"........dddd...d..d...",
"........d......d..d...",
"........dddd.d.dddd...",
"......................",
"......................"};
